^C:\USERS\NARGESS\SOURCE\REPOS\CPPCLR_WINFORMSPROJECT1\CPPCLR_WINFORMSPROJECT1\DEBUG\.NETFRAMEWORK,VERSION=V4.7.2.ASSEMBLYATTRIBUTES.CPP
C:\PROGRAM FILES (X86)\MICROSOFT VISUAL STUDIO\2019\COMMUNITY\VC\TOOLS\MSVC\14.29.30037\BIN\HOSTX86\X86\CL.EXE.CONFIG
C:\PROGRAM FILES (X86)\REFERENCE ASSEMBLIES\MICROSOFT\FRAMEWORK\.NETFRAMEWORK\V4.7.2\MSCORLIB.DLL
C:\PROGRAM FILES (X86)\REFERENCE ASSEMBLIES\MICROSOFT\FRAMEWORK\.NETFRAMEWORK\V4.7.2\SYSTEM.DATA.DLL
C:\PROGRAM FILES (X86)\REFERENCE ASSEMBLIES\MICROSOFT\FRAMEWORK\.NETFRAMEWORK\V4.7.2\SYSTEM.DLL
C:\PROGRAM FILES (X86)\REFERENCE ASSEMBLIES\MICROSOFT\FRAMEWORK\.NETFRAMEWORK\V4.7.2\SYSTEM.DRAWING.DLL
C:\PROGRAM FILES (X86)\REFERENCE ASSEMBLIES\MICROSOFT\FRAMEWORK\.NETFRAMEWORK\V4.7.2\SYSTEM.WINDOWS.FORMS.DLL
C:\PROGRAM FILES (X86)\REFERENCE ASSEMBLIES\MICROSOFT\FRAMEWORK\.NETFRAMEWORK\V4.7.2\SYSTEM.XML.DLL
^C:\USERS\NARGESS\SOURCE\REPOS\CPPCLR_WINFORMSPROJECT1\CPPCLR_WINFORMSPROJECT1\SUCCESSFULREG.CPP
C:\PROGRAM FILES (X86)\MICROSOFT VISUAL STUDIO\2019\COMMUNITY\VC\TOOLS\MSVC\14.29.30037\BIN\HOSTX86\X86\CL.EXE.CONFIG
C:\PROGRAM FILES (X86)\REFERENCE ASSEMBLIES\MICROSOFT\FRAMEWORK\.NETFRAMEWORK\V4.7.2\MSCORLIB.DLL
C:\PROGRAM FILES (X86)\REFERENCE ASSEMBLIES\MICROSOFT\FRAMEWORK\.NETFRAMEWORK\V4.7.2\SYSTEM.DATA.DLL
C:\PROGRAM FILES (X86)\REFERENCE ASSEMBLIES\MICROSOFT\FRAMEWORK\.NETFRAMEWORK\V4.7.2\SYSTEM.DLL
C:\PROGRAM FILES (X86)\REFERENCE ASSEMBLIES\MICROSOFT\FRAMEWORK\.NETFRAMEWORK\V4.7.2\SYSTEM.DRAWING.DLL
C:\PROGRAM FILES (X86)\REFERENCE ASSEMBLIES\MICROSOFT\FRAMEWORK\.NETFRAMEWORK\V4.7.2\SYSTEM.WINDOWS.FORMS.DLL
C:\PROGRAM FILES (X86)\REFERENCE ASSEMBLIES\MICROSOFT\FRAMEWORK\.NETFRAMEWORK\V4.7.2\SYSTEM.XML.DLL
C:\USERS\NARGESS\SOURCE\REPOS\CPPCLR_WINFORMSPROJECT1\CPPCLR_WINFORMSPROJECT1\SUCCESSFULREG.H
^C:\USERS\NARGESS\SOURCE\REPOS\CPPCLR_WINFORMSPROJECT1\CPPCLR_WINFORMSPROJECT1\MANAGERLOGIN.CPP
C:\PROGRAM FILES (X86)\MICROSOFT VISUAL STUDIO\2019\COMMUNITY\VC\TOOLS\MSVC\14.29.30037\BIN\HOSTX86\X86\CL.EXE.CONFIG
C:\PROGRAM FILES (X86)\REFERENCE ASSEMBLIES\MICROSOFT\FRAMEWORK\.NETFRAMEWORK\V4.7.2\MSCORLIB.DLL
C:\PROGRAM FILES (X86)\REFERENCE ASSEMBLIES\MICROSOFT\FRAMEWORK\.NETFRAMEWORK\V4.7.2\SYSTEM.DATA.DLL
C:\PROGRAM FILES (X86)\REFERENCE ASSEMBLIES\MICROSOFT\FRAMEWORK\.NETFRAMEWORK\V4.7.2\SYSTEM.DLL
C:\PROGRAM FILES (X86)\REFERENCE ASSEMBLIES\MICROSOFT\FRAMEWORK\.NETFRAMEWORK\V4.7.2\SYSTEM.DRAWING.DLL
C:\PROGRAM FILES (X86)\REFERENCE ASSEMBLIES\MICROSOFT\FRAMEWORK\.NETFRAMEWORK\V4.7.2\SYSTEM.WINDOWS.FORMS.DLL
C:\PROGRAM FILES (X86)\REFERENCE ASSEMBLIES\MICROSOFT\FRAMEWORK\.NETFRAMEWORK\V4.7.2\SYSTEM.XML.DLL
C:\USERS\NARGESS\SOURCE\REPOS\CPPCLR_WINFORMSPROJECT1\CPPCLR_WINFORMSPROJECT1\MANAGERLOGIN.H
C:\USERS\NARGESS\SOURCE\REPOS\CPPCLR_WINFORMSPROJECT1\CPPCLR_WINFORMSPROJECT1\MANAGERREG.H
C:\USERS\NARGESS\SOURCE\REPOS\CPPCLR_WINFORMSPROJECT1\CPPCLR_WINFORMSPROJECT1\SUCCESSFULREG.H
C:\USERS\NARGESS\SOURCE\REPOS\CPPCLR_WINFORMSPROJECT1\CPPCLR_WINFORMSPROJECT1\UNSUCCESSFULREG.H
^C:\USERS\NARGESS\SOURCE\REPOS\CPPCLR_WINFORMSPROJECT1\CPPCLR_WINFORMSPROJECT1\MANAGERREG.CPP
C:\PROGRAM FILES (X86)\MICROSOFT VISUAL STUDIO\2019\COMMUNITY\VC\TOOLS\MSVC\14.29.30037\BIN\HOSTX86\X86\CL.EXE.CONFIG
C:\PROGRAM FILES (X86)\REFERENCE ASSEMBLIES\MICROSOFT\FRAMEWORK\.NETFRAMEWORK\V4.7.2\MSCORLIB.DLL
C:\PROGRAM FILES (X86)\REFERENCE ASSEMBLIES\MICROSOFT\FRAMEWORK\.NETFRAMEWORK\V4.7.2\SYSTEM.DATA.DLL
C:\PROGRAM FILES (X86)\REFERENCE ASSEMBLIES\MICROSOFT\FRAMEWORK\.NETFRAMEWORK\V4.7.2\SYSTEM.DLL
C:\PROGRAM FILES (X86)\REFERENCE ASSEMBLIES\MICROSOFT\FRAMEWORK\.NETFRAMEWORK\V4.7.2\SYSTEM.DRAWING.DLL
C:\PROGRAM FILES (X86)\REFERENCE ASSEMBLIES\MICROSOFT\FRAMEWORK\.NETFRAMEWORK\V4.7.2\SYSTEM.WINDOWS.FORMS.DLL
C:\PROGRAM FILES (X86)\REFERENCE ASSEMBLIES\MICROSOFT\FRAMEWORK\.NETFRAMEWORK\V4.7.2\SYSTEM.XML.DLL
C:\USERS\NARGESS\SOURCE\REPOS\CPPCLR_WINFORMSPROJECT1\CPPCLR_WINFORMSPROJECT1\MANAGERREG.H
C:\USERS\NARGESS\SOURCE\REPOS\CPPCLR_WINFORMSPROJECT1\CPPCLR_WINFORMSPROJECT1\SUCCESSFULREG.H
C:\USERS\NARGESS\SOURCE\REPOS\CPPCLR_WINFORMSPROJECT1\CPPCLR_WINFORMSPROJECT1\UNSUCCESSFULREG.H
^C:\USERS\NARGESS\SOURCE\REPOS\CPPCLR_WINFORMSPROJECT1\CPPCLR_WINFORMSPROJECT1\UNSUCCESSFULREG.CPP
C:\PROGRAM FILES (X86)\MICROSOFT VISUAL STUDIO\2019\COMMUNITY\VC\TOOLS\MSVC\14.29.30037\BIN\HOSTX86\X86\CL.EXE.CONFIG
C:\PROGRAM FILES (X86)\REFERENCE ASSEMBLIES\MICROSOFT\FRAMEWORK\.NETFRAMEWORK\V4.7.2\MSCORLIB.DLL
C:\PROGRAM FILES (X86)\REFERENCE ASSEMBLIES\MICROSOFT\FRAMEWORK\.NETFRAMEWORK\V4.7.2\SYSTEM.DATA.DLL
C:\PROGRAM FILES (X86)\REFERENCE ASSEMBLIES\MICROSOFT\FRAMEWORK\.NETFRAMEWORK\V4.7.2\SYSTEM.DLL
C:\PROGRAM FILES (X86)\REFERENCE ASSEMBLIES\MICROSOFT\FRAMEWORK\.NETFRAMEWORK\V4.7.2\SYSTEM.DRAWING.DLL
C:\PROGRAM FILES (X86)\REFERENCE ASSEMBLIES\MICROSOFT\FRAMEWORK\.NETFRAMEWORK\V4.7.2\SYSTEM.WINDOWS.FORMS.DLL
C:\PROGRAM FILES (X86)\REFERENCE ASSEMBLIES\MICROSOFT\FRAMEWORK\.NETFRAMEWORK\V4.7.2\SYSTEM.XML.DLL
C:\USERS\NARGESS\SOURCE\REPOS\CPPCLR_WINFORMSPROJECT1\CPPCLR_WINFORMSPROJECT1\UNSUCCESSFULREG.H
^C:\USERS\NARGESS\SOURCE\REPOS\CPPCLR_WINFORMSPROJECT1\CPPCLR_WINFORMSPROJECT1\FORM1.CPP
C:\PROGRAM FILES (X86)\MICROSOFT VISUAL STUDIO\2019\COMMUNITY\VC\TOOLS\MSVC\14.29.30037\BIN\HOSTX86\X86\CL.EXE.CONFIG
C:\WINDOWS\MICROSOFT.NET\FRAMEWORK\V4.0.30319\CLR.DLL
C:\PROGRAM FILES (X86)\REFERENCE ASSEMBLIES\MICROSOFT\FRAMEWORK\.NETFRAMEWORK\V4.7.2\MSCORLIB.DLL
C:\PROGRAM FILES (X86)\REFERENCE ASSEMBLIES\MICROSOFT\FRAMEWORK\.NETFRAMEWORK\V4.7.2\SYSTEM.DATA.DLL
C:\PROGRAM FILES (X86)\REFERENCE ASSEMBLIES\MICROSOFT\FRAMEWORK\.NETFRAMEWORK\V4.7.2\SYSTEM.DLL
C:\PROGRAM FILES (X86)\REFERENCE ASSEMBLIES\MICROSOFT\FRAMEWORK\.NETFRAMEWORK\V4.7.2\SYSTEM.DRAWING.DLL
C:\PROGRAM FILES (X86)\REFERENCE ASSEMBLIES\MICROSOFT\FRAMEWORK\.NETFRAMEWORK\V4.7.2\SYSTEM.WINDOWS.FORMS.DLL
C:\PROGRAM FILES (X86)\REFERENCE ASSEMBLIES\MICROSOFT\FRAMEWORK\.NETFRAMEWORK\V4.7.2\SYSTEM.XML.DLL
C:\USERS\NARGESS\SOURCE\REPOS\CPPCLR_WINFORMSPROJECT1\CPPCLR_WINFORMSPROJECT1\FORM1.H
C:\USERS\NARGESS\SOURCE\REPOS\CPPCLR_WINFORMSPROJECT1\CPPCLR_WINFORMSPROJECT1\STUDENTLOGIN.H
C:\USERS\NARGESS\SOURCE\REPOS\CPPCLR_WINFORMSPROJECT1\CPPCLR_WINFORMSPROJECT1\STUDENTREG.H
C:\USERS\NARGESS\SOURCE\REPOS\CPPCLR_WINFORMSPROJECT1\CPPCLR_WINFORMSPROJECT1\SUCCESSFULREG.H
C:\USERS\NARGESS\SOURCE\REPOS\CPPCLR_WINFORMSPROJECT1\CPPCLR_WINFORMSPROJECT1\UNSUCCESSFULREG.H
C:\USERS\NARGESS\SOURCE\REPOS\CPPCLR_WINFORMSPROJECT1\CPPCLR_WINFORMSPROJECT1\MANAGERLOGIN.H
C:\USERS\NARGESS\SOURCE\REPOS\CPPCLR_WINFORMSPROJECT1\CPPCLR_WINFORMSPROJECT1\MANAGERREG.H
^C:\USERS\NARGESS\SOURCE\REPOS\CPPCLR_WINFORMSPROJECT1\CPPCLR_WINFORMSPROJECT1\STUDENTLOGIN.CPP
C:\PROGRAM FILES (X86)\MICROSOFT VISUAL STUDIO\2019\COMMUNITY\VC\TOOLS\MSVC\14.29.30037\BIN\HOSTX86\X86\CL.EXE.CONFIG
C:\PROGRAM FILES (X86)\REFERENCE ASSEMBLIES\MICROSOFT\FRAMEWORK\.NETFRAMEWORK\V4.7.2\MSCORLIB.DLL
C:\PROGRAM FILES (X86)\REFERENCE ASSEMBLIES\MICROSOFT\FRAMEWORK\.NETFRAMEWORK\V4.7.2\SYSTEM.DATA.DLL
C:\PROGRAM FILES (X86)\REFERENCE ASSEMBLIES\MICROSOFT\FRAMEWORK\.NETFRAMEWORK\V4.7.2\SYSTEM.DLL
C:\PROGRAM FILES (X86)\REFERENCE ASSEMBLIES\MICROSOFT\FRAMEWORK\.NETFRAMEWORK\V4.7.2\SYSTEM.DRAWING.DLL
C:\PROGRAM FILES (X86)\REFERENCE ASSEMBLIES\MICROSOFT\FRAMEWORK\.NETFRAMEWORK\V4.7.2\SYSTEM.WINDOWS.FORMS.DLL
C:\PROGRAM FILES (X86)\REFERENCE ASSEMBLIES\MICROSOFT\FRAMEWORK\.NETFRAMEWORK\V4.7.2\SYSTEM.XML.DLL
C:\USERS\NARGESS\SOURCE\REPOS\CPPCLR_WINFORMSPROJECT1\CPPCLR_WINFORMSPROJECT1\STUDENTLOGIN.H
C:\USERS\NARGESS\SOURCE\REPOS\CPPCLR_WINFORMSPROJECT1\CPPCLR_WINFORMSPROJECT1\STUDENTREG.H
C:\USERS\NARGESS\SOURCE\REPOS\CPPCLR_WINFORMSPROJECT1\CPPCLR_WINFORMSPROJECT1\SUCCESSFULREG.H
C:\USERS\NARGESS\SOURCE\REPOS\CPPCLR_WINFORMSPROJECT1\CPPCLR_WINFORMSPROJECT1\UNSUCCESSFULREG.H
^C:\USERS\NARGESS\SOURCE\REPOS\CPPCLR_WINFORMSPROJECT1\CPPCLR_WINFORMSPROJECT1\STUDENTREG.CPP
C:\PROGRAM FILES (X86)\MICROSOFT VISUAL STUDIO\2019\COMMUNITY\VC\TOOLS\MSVC\14.29.30037\BIN\HOSTX86\X86\CL.EXE.CONFIG
C:\PROGRAM FILES (X86)\REFERENCE ASSEMBLIES\MICROSOFT\FRAMEWORK\.NETFRAMEWORK\V4.7.2\MSCORLIB.DLL
C:\PROGRAM FILES (X86)\REFERENCE ASSEMBLIES\MICROSOFT\FRAMEWORK\.NETFRAMEWORK\V4.7.2\SYSTEM.DATA.DLL
C:\PROGRAM FILES (X86)\REFERENCE ASSEMBLIES\MICROSOFT\FRAMEWORK\.NETFRAMEWORK\V4.7.2\SYSTEM.DLL
C:\PROGRAM FILES (X86)\REFERENCE ASSEMBLIES\MICROSOFT\FRAMEWORK\.NETFRAMEWORK\V4.7.2\SYSTEM.DRAWING.DLL
C:\PROGRAM FILES (X86)\REFERENCE ASSEMBLIES\MICROSOFT\FRAMEWORK\.NETFRAMEWORK\V4.7.2\SYSTEM.WINDOWS.FORMS.DLL
C:\PROGRAM FILES (X86)\REFERENCE ASSEMBLIES\MICROSOFT\FRAMEWORK\.NETFRAMEWORK\V4.7.2\SYSTEM.XML.DLL
C:\USERS\NARGESS\SOURCE\REPOS\CPPCLR_WINFORMSPROJECT1\CPPCLR_WINFORMSPROJECT1\STUDENTREG.H
C:\USERS\NARGESS\SOURCE\REPOS\CPPCLR_WINFORMSPROJECT1\CPPCLR_WINFORMSPROJECT1\SUCCESSFULREG.H
C:\USERS\NARGESS\SOURCE\REPOS\CPPCLR_WINFORMSPROJECT1\CPPCLR_WINFORMSPROJECT1\UNSUCCESSFULREG.H
^C:\USERS\NARGESS\SOURCE\REPOS\CPPCLR_WINFORMSPROJECT1\CPPCLR_WINFORMSPROJECT1\MAIN.CPP
C:\PROGRAM FILES (X86)\MICROSOFT VISUAL STUDIO\2019\COMMUNITY\VC\TOOLS\MSVC\14.29.30037\BIN\HOSTX86\X86\CL.EXE.CONFIG
C:\PROGRAM FILES (X86)\REFERENCE ASSEMBLIES\MICROSOFT\FRAMEWORK\.NETFRAMEWORK\V4.7.2\MSCORLIB.DLL
C:\PROGRAM FILES (X86)\REFERENCE ASSEMBLIES\MICROSOFT\FRAMEWORK\.NETFRAMEWORK\V4.7.2\SYSTEM.DATA.DLL
C:\PROGRAM FILES (X86)\REFERENCE ASSEMBLIES\MICROSOFT\FRAMEWORK\.NETFRAMEWORK\V4.7.2\SYSTEM.DLL
C:\PROGRAM FILES (X86)\REFERENCE ASSEMBLIES\MICROSOFT\FRAMEWORK\.NETFRAMEWORK\V4.7.2\SYSTEM.DRAWING.DLL
C:\PROGRAM FILES (X86)\REFERENCE ASSEMBLIES\MICROSOFT\FRAMEWORK\.NETFRAMEWORK\V4.7.2\SYSTEM.WINDOWS.FORMS.DLL
C:\PROGRAM FILES (X86)\REFERENCE ASSEMBLIES\MICROSOFT\FRAMEWORK\.NETFRAMEWORK\V4.7.2\SYSTEM.XML.DLL
C:\USERS\NARGESS\SOURCE\REPOS\CPPCLR_WINFORMSPROJECT1\CPPCLR_WINFORMSPROJECT1\FORM1.H
C:\USERS\NARGESS\SOURCE\REPOS\CPPCLR_WINFORMSPROJECT1\CPPCLR_WINFORMSPROJECT1\STUDENTLOGIN.H
C:\USERS\NARGESS\SOURCE\REPOS\CPPCLR_WINFORMSPROJECT1\CPPCLR_WINFORMSPROJECT1\STUDENTREG.H
C:\USERS\NARGESS\SOURCE\REPOS\CPPCLR_WINFORMSPROJECT1\CPPCLR_WINFORMSPROJECT1\SUCCESSFULREG.H
C:\USERS\NARGESS\SOURCE\REPOS\CPPCLR_WINFORMSPROJECT1\CPPCLR_WINFORMSPROJECT1\UNSUCCESSFULREG.H
C:\USERS\NARGESS\SOURCE\REPOS\CPPCLR_WINFORMSPROJECT1\CPPCLR_WINFORMSPROJECT1\MANAGERLOGIN.H
C:\USERS\NARGESS\SOURCE\REPOS\CPPCLR_WINFORMSPROJECT1\CPPCLR_WINFORMSPROJECT1\MANAGERREG.H
^D:\DANESHGAH\AP\NIM TERM\AP-PROJECT\CPPCLR_WINFORMSPROJECT1\CPPCLR_WINFORMSPROJECT1\MANAGERREG.CPP
C:\PROGRAM FILES (X86)\MICROSOFT VISUAL STUDIO\2019\COMMUNITY\VC\TOOLS\MSVC\14.29.30037\BIN\HOSTX86\X86\CL.EXE.CONFIG
C:\PROGRAM FILES (X86)\REFERENCE ASSEMBLIES\MICROSOFT\FRAMEWORK\.NETFRAMEWORK\V4.7.2\MSCORLIB.DLL
C:\PROGRAM FILES (X86)\REFERENCE ASSEMBLIES\MICROSOFT\FRAMEWORK\.NETFRAMEWORK\V4.7.2\SYSTEM.DATA.DLL
C:\PROGRAM FILES (X86)\REFERENCE ASSEMBLIES\MICROSOFT\FRAMEWORK\.NETFRAMEWORK\V4.7.2\SYSTEM.DLL
C:\PROGRAM FILES (X86)\REFERENCE ASSEMBLIES\MICROSOFT\FRAMEWORK\.NETFRAMEWORK\V4.7.2\SYSTEM.DRAWING.DLL
C:\PROGRAM FILES (X86)\REFERENCE ASSEMBLIES\MICROSOFT\FRAMEWORK\.NETFRAMEWORK\V4.7.2\SYSTEM.WINDOWS.FORMS.DLL
C:\PROGRAM FILES (X86)\REFERENCE ASSEMBLIES\MICROSOFT\FRAMEWORK\.NETFRAMEWORK\V4.7.2\SYSTEM.XML.DLL
D:\DANESHGAH\AP\NIM TERM\AP-PROJECT\CPPCLR_WINFORMSPROJECT1\CPPCLR_WINFORMSPROJECT1\MANAGERREG.H
D:\DANESHGAH\AP\NIM TERM\AP-PROJECT\CPPCLR_WINFORMSPROJECT1\CPPCLR_WINFORMSPROJECT1\SUCCESSFULREG.H
D:\DANESHGAH\AP\NIM TERM\AP-PROJECT\CPPCLR_WINFORMSPROJECT1\CPPCLR_WINFORMSPROJECT1\UNSUCCESSFULREG.H
^D:\DANESHGAH\AP\NIM TERM\AP-PROJECT\CPPCLR_WINFORMSPROJECT1\CPPCLR_WINFORMSPROJECT1\STUDENTREG.CPP
C:\PROGRAM FILES (X86)\MICROSOFT VISUAL STUDIO\2019\COMMUNITY\VC\TOOLS\MSVC\14.29.30037\BIN\HOSTX86\X86\CL.EXE.CONFIG
C:\PROGRAM FILES (X86)\REFERENCE ASSEMBLIES\MICROSOFT\FRAMEWORK\.NETFRAMEWORK\V4.7.2\MSCORLIB.DLL
C:\PROGRAM FILES (X86)\REFERENCE ASSEMBLIES\MICROSOFT\FRAMEWORK\.NETFRAMEWORK\V4.7.2\SYSTEM.DATA.DLL
C:\PROGRAM FILES (X86)\REFERENCE ASSEMBLIES\MICROSOFT\FRAMEWORK\.NETFRAMEWORK\V4.7.2\SYSTEM.DLL
C:\PROGRAM FILES (X86)\REFERENCE ASSEMBLIES\MICROSOFT\FRAMEWORK\.NETFRAMEWORK\V4.7.2\SYSTEM.DRAWING.DLL
C:\PROGRAM FILES (X86)\REFERENCE ASSEMBLIES\MICROSOFT\FRAMEWORK\.NETFRAMEWORK\V4.7.2\SYSTEM.WINDOWS.FORMS.DLL
C:\PROGRAM FILES (X86)\REFERENCE ASSEMBLIES\MICROSOFT\FRAMEWORK\.NETFRAMEWORK\V4.7.2\SYSTEM.XML.DLL
D:\DANESHGAH\AP\NIM TERM\AP-PROJECT\CPPCLR_WINFORMSPROJECT1\CPPCLR_WINFORMSPROJECT1\STUDENTREG.H
D:\DANESHGAH\AP\NIM TERM\AP-PROJECT\CPPCLR_WINFORMSPROJECT1\CPPCLR_WINFORMSPROJECT1\SUCCESSFULREG.H
D:\DANESHGAH\AP\NIM TERM\AP-PROJECT\CPPCLR_WINFORMSPROJECT1\CPPCLR_WINFORMSPROJECT1\UNSUCCESSFULREG.H
^D:\DANESHGAH\AP\NIM TERM\AP-PROJECT\CPPCLR_WINFORMSPROJECT1\CPPCLR_WINFORMSPROJECT1\SUCCESSFULREG.CPP
C:\PROGRAM FILES (X86)\MICROSOFT VISUAL STUDIO\2019\COMMUNITY\VC\TOOLS\MSVC\14.29.30037\BIN\HOSTX86\X86\CL.EXE.CONFIG
C:\PROGRAM FILES (X86)\REFERENCE ASSEMBLIES\MICROSOFT\FRAMEWORK\.NETFRAMEWORK\V4.7.2\MSCORLIB.DLL
C:\PROGRAM FILES (X86)\REFERENCE ASSEMBLIES\MICROSOFT\FRAMEWORK\.NETFRAMEWORK\V4.7.2\SYSTEM.DATA.DLL
C:\PROGRAM FILES (X86)\REFERENCE ASSEMBLIES\MICROSOFT\FRAMEWORK\.NETFRAMEWORK\V4.7.2\SYSTEM.DLL
C:\PROGRAM FILES (X86)\REFERENCE ASSEMBLIES\MICROSOFT\FRAMEWORK\.NETFRAMEWORK\V4.7.2\SYSTEM.DRAWING.DLL
C:\PROGRAM FILES (X86)\REFERENCE ASSEMBLIES\MICROSOFT\FRAMEWORK\.NETFRAMEWORK\V4.7.2\SYSTEM.WINDOWS.FORMS.DLL
C:\PROGRAM FILES (X86)\REFERENCE ASSEMBLIES\MICROSOFT\FRAMEWORK\.NETFRAMEWORK\V4.7.2\SYSTEM.XML.DLL
D:\DANESHGAH\AP\NIM TERM\AP-PROJECT\CPPCLR_WINFORMSPROJECT1\CPPCLR_WINFORMSPROJECT1\SUCCESSFULREG.H
^D:\DANESHGAH\AP\NIM TERM\AP-PROJECT\CPPCLR_WINFORMSPROJECT1\CPPCLR_WINFORMSPROJECT1\UNSUCCESSFULREG.CPP
C:\PROGRAM FILES (X86)\MICROSOFT VISUAL STUDIO\2019\COMMUNITY\VC\TOOLS\MSVC\14.29.30037\BIN\HOSTX86\X86\CL.EXE.CONFIG
C:\PROGRAM FILES (X86)\REFERENCE ASSEMBLIES\MICROSOFT\FRAMEWORK\.NETFRAMEWORK\V4.7.2\MSCORLIB.DLL
C:\PROGRAM FILES (X86)\REFERENCE ASSEMBLIES\MICROSOFT\FRAMEWORK\.NETFRAMEWORK\V4.7.2\SYSTEM.DATA.DLL
C:\PROGRAM FILES (X86)\REFERENCE ASSEMBLIES\MICROSOFT\FRAMEWORK\.NETFRAMEWORK\V4.7.2\SYSTEM.DLL
C:\PROGRAM FILES (X86)\REFERENCE ASSEMBLIES\MICROSOFT\FRAMEWORK\.NETFRAMEWORK\V4.7.2\SYSTEM.DRAWING.DLL
C:\PROGRAM FILES (X86)\REFERENCE ASSEMBLIES\MICROSOFT\FRAMEWORK\.NETFRAMEWORK\V4.7.2\SYSTEM.WINDOWS.FORMS.DLL
C:\PROGRAM FILES (X86)\REFERENCE ASSEMBLIES\MICROSOFT\FRAMEWORK\.NETFRAMEWORK\V4.7.2\SYSTEM.XML.DLL
D:\DANESHGAH\AP\NIM TERM\AP-PROJECT\CPPCLR_WINFORMSPROJECT1\CPPCLR_WINFORMSPROJECT1\UNSUCCESSFULREG.H
^D:\DANESHGAH\AP\NIM TERM\AP-PROJECT\CPPCLR_WINFORMSPROJECT1\CPPCLR_WINFORMSPROJECT1\DEBUG\.NETFRAMEWORK,VERSION=V4.7.2.ASSEMBLYATTRIBUTES.CPP
C:\PROGRAM FILES (X86)\MICROSOFT VISUAL STUDIO\2019\COMMUNITY\VC\TOOLS\MSVC\14.29.30037\BIN\HOSTX86\X86\CL.EXE.CONFIG
C:\PROGRAM FILES (X86)\REFERENCE ASSEMBLIES\MICROSOFT\FRAMEWORK\.NETFRAMEWORK\V4.7.2\MSCORLIB.DLL
C:\PROGRAM FILES (X86)\REFERENCE ASSEMBLIES\MICROSOFT\FRAMEWORK\.NETFRAMEWORK\V4.7.2\SYSTEM.DATA.DLL
C:\PROGRAM FILES (X86)\REFERENCE ASSEMBLIES\MICROSOFT\FRAMEWORK\.NETFRAMEWORK\V4.7.2\SYSTEM.DLL
C:\PROGRAM FILES (X86)\REFERENCE ASSEMBLIES\MICROSOFT\FRAMEWORK\.NETFRAMEWORK\V4.7.2\SYSTEM.DRAWING.DLL
C:\PROGRAM FILES (X86)\REFERENCE ASSEMBLIES\MICROSOFT\FRAMEWORK\.NETFRAMEWORK\V4.7.2\SYSTEM.WINDOWS.FORMS.DLL
C:\PROGRAM FILES (X86)\REFERENCE ASSEMBLIES\MICROSOFT\FRAMEWORK\.NETFRAMEWORK\V4.7.2\SYSTEM.XML.DLL
^D:\DANESHGAH\AP\NIM TERM\AP-PROJECT\CPPCLR_WINFORMSPROJECT1\CPPCLR_WINFORMSPROJECT1\MANAGEPANEL.CPP
C:\PROGRAM FILES (X86)\MICROSOFT VISUAL STUDIO\2019\COMMUNITY\VC\TOOLS\MSVC\14.29.30037\BIN\HOSTX86\X86\CL.EXE.CONFIG
C:\PROGRAM FILES (X86)\REFERENCE ASSEMBLIES\MICROSOFT\FRAMEWORK\.NETFRAMEWORK\V4.7.2\MSCORLIB.DLL
C:\PROGRAM FILES (X86)\REFERENCE ASSEMBLIES\MICROSOFT\FRAMEWORK\.NETFRAMEWORK\V4.7.2\SYSTEM.DATA.DLL
C:\PROGRAM FILES (X86)\REFERENCE ASSEMBLIES\MICROSOFT\FRAMEWORK\.NETFRAMEWORK\V4.7.2\SYSTEM.DLL
C:\PROGRAM FILES (X86)\REFERENCE ASSEMBLIES\MICROSOFT\FRAMEWORK\.NETFRAMEWORK\V4.7.2\SYSTEM.DRAWING.DLL
C:\PROGRAM FILES (X86)\REFERENCE ASSEMBLIES\MICROSOFT\FRAMEWORK\.NETFRAMEWORK\V4.7.2\SYSTEM.WINDOWS.FORMS.DLL
C:\PROGRAM FILES (X86)\REFERENCE ASSEMBLIES\MICROSOFT\FRAMEWORK\.NETFRAMEWORK\V4.7.2\SYSTEM.XML.DLL
D:\DANESHGAH\AP\NIM TERM\AP-PROJECT\CPPCLR_WINFORMSPROJECT1\CPPCLR_WINFORMSPROJECT1\MANAGEPANEL.H
^D:\DANESHGAH\AP\NIM TERM\AP-PROJECT\CPPCLR_WINFORMSPROJECT1\CPPCLR_WINFORMSPROJECT1\MANAGERLOGIN.CPP
C:\PROGRAM FILES (X86)\MICROSOFT VISUAL STUDIO\2019\COMMUNITY\VC\TOOLS\MSVC\14.29.30037\BIN\HOSTX86\X86\CL.EXE.CONFIG
C:\PROGRAM FILES (X86)\REFERENCE ASSEMBLIES\MICROSOFT\FRAMEWORK\.NETFRAMEWORK\V4.7.2\MSCORLIB.DLL
C:\PROGRAM FILES (X86)\REFERENCE ASSEMBLIES\MICROSOFT\FRAMEWORK\.NETFRAMEWORK\V4.7.2\SYSTEM.DATA.DLL
C:\PROGRAM FILES (X86)\REFERENCE ASSEMBLIES\MICROSOFT\FRAMEWORK\.NETFRAMEWORK\V4.7.2\SYSTEM.DLL
C:\PROGRAM FILES (X86)\REFERENCE ASSEMBLIES\MICROSOFT\FRAMEWORK\.NETFRAMEWORK\V4.7.2\SYSTEM.DRAWING.DLL
C:\PROGRAM FILES (X86)\REFERENCE ASSEMBLIES\MICROSOFT\FRAMEWORK\.NETFRAMEWORK\V4.7.2\SYSTEM.WINDOWS.FORMS.DLL
C:\PROGRAM FILES (X86)\REFERENCE ASSEMBLIES\MICROSOFT\FRAMEWORK\.NETFRAMEWORK\V4.7.2\SYSTEM.XML.DLL
D:\DANESHGAH\AP\NIM TERM\AP-PROJECT\CPPCLR_WINFORMSPROJECT1\CPPCLR_WINFORMSPROJECT1\MANAGERLOGIN.H
D:\DANESHGAH\AP\NIM TERM\AP-PROJECT\CPPCLR_WINFORMSPROJECT1\CPPCLR_WINFORMSPROJECT1\MANAGERREG.H
D:\DANESHGAH\AP\NIM TERM\AP-PROJECT\CPPCLR_WINFORMSPROJECT1\CPPCLR_WINFORMSPROJECT1\SUCCESSFULREG.H
D:\DANESHGAH\AP\NIM TERM\AP-PROJECT\CPPCLR_WINFORMSPROJECT1\CPPCLR_WINFORMSPROJECT1\UNSUCCESSFULREG.H
D:\DANESHGAH\AP\NIM TERM\AP-PROJECT\CPPCLR_WINFORMSPROJECT1\CPPCLR_WINFORMSPROJECT1\MANAGEPANEL.H
^D:\DANESHGAH\AP\NIM TERM\AP-PROJECT\CPPCLR_WINFORMSPROJECT1\CPPCLR_WINFORMSPROJECT1\FORM1.CPP
C:\PROGRAM FILES (X86)\MICROSOFT VISUAL STUDIO\2019\COMMUNITY\VC\TOOLS\MSVC\14.29.30037\BIN\HOSTX86\X86\CL.EXE.CONFIG
C:\WINDOWS\MICROSOFT.NET\FRAMEWORK\V4.0.30319\CLR.DLL
C:\PROGRAM FILES (X86)\REFERENCE ASSEMBLIES\MICROSOFT\FRAMEWORK\.NETFRAMEWORK\V4.7.2\MSCORLIB.DLL
C:\PROGRAM FILES (X86)\REFERENCE ASSEMBLIES\MICROSOFT\FRAMEWORK\.NETFRAMEWORK\V4.7.2\SYSTEM.DATA.DLL
C:\PROGRAM FILES (X86)\REFERENCE ASSEMBLIES\MICROSOFT\FRAMEWORK\.NETFRAMEWORK\V4.7.2\SYSTEM.DLL
C:\PROGRAM FILES (X86)\REFERENCE ASSEMBLIES\MICROSOFT\FRAMEWORK\.NETFRAMEWORK\V4.7.2\SYSTEM.DRAWING.DLL
C:\PROGRAM FILES (X86)\REFERENCE ASSEMBLIES\MICROSOFT\FRAMEWORK\.NETFRAMEWORK\V4.7.2\SYSTEM.WINDOWS.FORMS.DLL
C:\PROGRAM FILES (X86)\REFERENCE ASSEMBLIES\MICROSOFT\FRAMEWORK\.NETFRAMEWORK\V4.7.2\SYSTEM.XML.DLL
D:\DANESHGAH\AP\NIM TERM\AP-PROJECT\CPPCLR_WINFORMSPROJECT1\CPPCLR_WINFORMSPROJECT1\FORM1.H
D:\DANESHGAH\AP\NIM TERM\AP-PROJECT\CPPCLR_WINFORMSPROJECT1\CPPCLR_WINFORMSPROJECT1\STUDENTLOGIN.H
D:\DANESHGAH\AP\NIM TERM\AP-PROJECT\CPPCLR_WINFORMSPROJECT1\CPPCLR_WINFORMSPROJECT1\STUDENTREG.H
D:\DANESHGAH\AP\NIM TERM\AP-PROJECT\CPPCLR_WINFORMSPROJECT1\CPPCLR_WINFORMSPROJECT1\SUCCESSFULREG.H
D:\DANESHGAH\AP\NIM TERM\AP-PROJECT\CPPCLR_WINFORMSPROJECT1\CPPCLR_WINFORMSPROJECT1\UNSUCCESSFULREG.H
D:\DANESHGAH\AP\NIM TERM\AP-PROJECT\CPPCLR_WINFORMSPROJECT1\CPPCLR_WINFORMSPROJECT1\STUDENTPANEL.H
D:\DANESHGAH\AP\NIM TERM\AP-PROJECT\CPPCLR_WINFORMSPROJECT1\CPPCLR_WINFORMSPROJECT1\MANAGERLOGIN.H
D:\DANESHGAH\AP\NIM TERM\AP-PROJECT\CPPCLR_WINFORMSPROJECT1\CPPCLR_WINFORMSPROJECT1\MANAGERREG.H
D:\DANESHGAH\AP\NIM TERM\AP-PROJECT\CPPCLR_WINFORMSPROJECT1\CPPCLR_WINFORMSPROJECT1\MANAGEPANEL.H
^D:\DANESHGAH\AP\NIM TERM\AP-PROJECT\CPPCLR_WINFORMSPROJECT1\CPPCLR_WINFORMSPROJECT1\STUDENTLOGIN.CPP
C:\PROGRAM FILES (X86)\MICROSOFT VISUAL STUDIO\2019\COMMUNITY\VC\TOOLS\MSVC\14.29.30037\BIN\HOSTX86\X86\CL.EXE.CONFIG
C:\PROGRAM FILES (X86)\REFERENCE ASSEMBLIES\MICROSOFT\FRAMEWORK\.NETFRAMEWORK\V4.7.2\MSCORLIB.DLL
C:\PROGRAM FILES (X86)\REFERENCE ASSEMBLIES\MICROSOFT\FRAMEWORK\.NETFRAMEWORK\V4.7.2\SYSTEM.DATA.DLL
C:\PROGRAM FILES (X86)\REFERENCE ASSEMBLIES\MICROSOFT\FRAMEWORK\.NETFRAMEWORK\V4.7.2\SYSTEM.DLL
C:\PROGRAM FILES (X86)\REFERENCE ASSEMBLIES\MICROSOFT\FRAMEWORK\.NETFRAMEWORK\V4.7.2\SYSTEM.DRAWING.DLL
C:\PROGRAM FILES (X86)\REFERENCE ASSEMBLIES\MICROSOFT\FRAMEWORK\.NETFRAMEWORK\V4.7.2\SYSTEM.WINDOWS.FORMS.DLL
C:\PROGRAM FILES (X86)\REFERENCE ASSEMBLIES\MICROSOFT\FRAMEWORK\.NETFRAMEWORK\V4.7.2\SYSTEM.XML.DLL
D:\DANESHGAH\AP\NIM TERM\AP-PROJECT\CPPCLR_WINFORMSPROJECT1\CPPCLR_WINFORMSPROJECT1\STUDENTLOGIN.H
D:\DANESHGAH\AP\NIM TERM\AP-PROJECT\CPPCLR_WINFORMSPROJECT1\CPPCLR_WINFORMSPROJECT1\STUDENTREG.H
D:\DANESHGAH\AP\NIM TERM\AP-PROJECT\CPPCLR_WINFORMSPROJECT1\CPPCLR_WINFORMSPROJECT1\SUCCESSFULREG.H
D:\DANESHGAH\AP\NIM TERM\AP-PROJECT\CPPCLR_WINFORMSPROJECT1\CPPCLR_WINFORMSPROJECT1\UNSUCCESSFULREG.H
D:\DANESHGAH\AP\NIM TERM\AP-PROJECT\CPPCLR_WINFORMSPROJECT1\CPPCLR_WINFORMSPROJECT1\STUDENTPANEL.H
^D:\DANESHGAH\AP\NIM TERM\AP-PROJECT\CPPCLR_WINFORMSPROJECT1\CPPCLR_WINFORMSPROJECT1\STUDENTPANEL.CPP
C:\PROGRAM FILES (X86)\MICROSOFT VISUAL STUDIO\2019\COMMUNITY\VC\TOOLS\MSVC\14.29.30037\BIN\HOSTX86\X86\CL.EXE.CONFIG
C:\PROGRAM FILES (X86)\REFERENCE ASSEMBLIES\MICROSOFT\FRAMEWORK\.NETFRAMEWORK\V4.7.2\MSCORLIB.DLL
C:\PROGRAM FILES (X86)\REFERENCE ASSEMBLIES\MICROSOFT\FRAMEWORK\.NETFRAMEWORK\V4.7.2\SYSTEM.DATA.DLL
C:\PROGRAM FILES (X86)\REFERENCE ASSEMBLIES\MICROSOFT\FRAMEWORK\.NETFRAMEWORK\V4.7.2\SYSTEM.DLL
C:\PROGRAM FILES (X86)\REFERENCE ASSEMBLIES\MICROSOFT\FRAMEWORK\.NETFRAMEWORK\V4.7.2\SYSTEM.DRAWING.DLL
C:\PROGRAM FILES (X86)\REFERENCE ASSEMBLIES\MICROSOFT\FRAMEWORK\.NETFRAMEWORK\V4.7.2\SYSTEM.WINDOWS.FORMS.DLL
C:\PROGRAM FILES (X86)\REFERENCE ASSEMBLIES\MICROSOFT\FRAMEWORK\.NETFRAMEWORK\V4.7.2\SYSTEM.XML.DLL
D:\DANESHGAH\AP\NIM TERM\AP-PROJECT\CPPCLR_WINFORMSPROJECT1\CPPCLR_WINFORMSPROJECT1\STUDENTPANEL.H
^D:\DANESHGAH\AP\NIM TERM\AP-PROJECT\CPPCLR_WINFORMSPROJECT1\CPPCLR_WINFORMSPROJECT1\MAIN.CPP
C:\PROGRAM FILES (X86)\MICROSOFT VISUAL STUDIO\2019\COMMUNITY\VC\TOOLS\MSVC\14.29.30037\BIN\HOSTX86\X86\CL.EXE.CONFIG
C:\PROGRAM FILES (X86)\REFERENCE ASSEMBLIES\MICROSOFT\FRAMEWORK\.NETFRAMEWORK\V4.7.2\MSCORLIB.DLL
C:\PROGRAM FILES (X86)\REFERENCE ASSEMBLIES\MICROSOFT\FRAMEWORK\.NETFRAMEWORK\V4.7.2\SYSTEM.DATA.DLL
C:\PROGRAM FILES (X86)\REFERENCE ASSEMBLIES\MICROSOFT\FRAMEWORK\.NETFRAMEWORK\V4.7.2\SYSTEM.DLL
C:\PROGRAM FILES (X86)\REFERENCE ASSEMBLIES\MICROSOFT\FRAMEWORK\.NETFRAMEWORK\V4.7.2\SYSTEM.DRAWING.DLL
C:\PROGRAM FILES (X86)\REFERENCE ASSEMBLIES\MICROSOFT\FRAMEWORK\.NETFRAMEWORK\V4.7.2\SYSTEM.WINDOWS.FORMS.DLL
C:\PROGRAM FILES (X86)\REFERENCE ASSEMBLIES\MICROSOFT\FRAMEWORK\.NETFRAMEWORK\V4.7.2\SYSTEM.XML.DLL
D:\DANESHGAH\AP\NIM TERM\AP-PROJECT\CPPCLR_WINFORMSPROJECT1\CPPCLR_WINFORMSPROJECT1\FORM1.H
D:\DANESHGAH\AP\NIM TERM\AP-PROJECT\CPPCLR_WINFORMSPROJECT1\CPPCLR_WINFORMSPROJECT1\STUDENTLOGIN.H
D:\DANESHGAH\AP\NIM TERM\AP-PROJECT\CPPCLR_WINFORMSPROJECT1\CPPCLR_WINFORMSPROJECT1\STUDENTREG.H
D:\DANESHGAH\AP\NIM TERM\AP-PROJECT\CPPCLR_WINFORMSPROJECT1\CPPCLR_WINFORMSPROJECT1\SUCCESSFULREG.H
D:\DANESHGAH\AP\NIM TERM\AP-PROJECT\CPPCLR_WINFORMSPROJECT1\CPPCLR_WINFORMSPROJECT1\UNSUCCESSFULREG.H
D:\DANESHGAH\AP\NIM TERM\AP-PROJECT\CPPCLR_WINFORMSPROJECT1\CPPCLR_WINFORMSPROJECT1\STUDENTPANEL.H
D:\DANESHGAH\AP\NIM TERM\AP-PROJECT\CPPCLR_WINFORMSPROJECT1\CPPCLR_WINFORMSPROJECT1\MANAGERLOGIN.H
D:\DANESHGAH\AP\NIM TERM\AP-PROJECT\CPPCLR_WINFORMSPROJECT1\CPPCLR_WINFORMSPROJECT1\MANAGERREG.H
D:\DANESHGAH\AP\NIM TERM\AP-PROJECT\CPPCLR_WINFORMSPROJECT1\CPPCLR_WINFORMSPROJECT1\MANAGEPANEL.H
