^C:\USERS\NARGESS\SOURCE\REPOS\CPPCLR_WINFORMSPROJECT1\CPPCLR_WINFORMSPROJECT1\DEBUG\.NETFRAMEWORK,VERSION=V4.7.2.ASSEMBLYATTRIBUTES.OBJ|C:\USERS\NARGESS\SOURCE\REPOS\CPPCLR_WINFORMSPROJECT1\CPPCLR_WINFORMSPROJECT1\DEBUG\FORM1.OBJ|C:\USERS\NARGESS\SOURCE\REPOS\CPPCLR_WINFORMSPROJECT1\CPPCLR_WINFORMSPROJECT1\DEBUG\MAIN.OBJ|C:\USERS\NARGESS\SOURCE\REPOS\CPPCLR_WINFORMSPROJECT1\CPPCLR_WINFORMSPROJECT1\DEBUG\MANAGERLOGIN.OBJ|C:\USERS\NARGESS\SOURCE\REPOS\CPPCLR_WINFORMSPROJECT1\CPPCLR_WINFORMSPROJECT1\DEBUG\MANAGERREG.OBJ|C:\USERS\NARGESS\SOURCE\REPOS\CPPCLR_WINFORMSPROJECT1\CPPCLR_WINFORMSPROJECT1\DEBUG\STUDENTLOGIN.OBJ|C:\USERS\NARGESS\SOURCE\REPOS\CPPCLR_WINFORMSPROJECT1\CPPCLR_WINFORMSPROJECT1\DEBUG\STUDENTREG.OBJ|C:\USERS\NARGESS\SOURCE\REPOS\CPPCLR_WINFORMSPROJECT1\CPPCLR_WINFORMSPROJECT1\DEBUG\SUCCESSFULREG.OBJ|C:\USERS\NARGESS\SOURCE\REPOS\CPPCLR_WINFORMSPROJECT1\CPPCLR_WINFORMSPROJECT1\DEBUG\UNSUCCESSFULREG.OBJ
C:\USERS\NARGESS\SOURCE\REPOS\CPPCLR_WINFORMSPROJECT1\CPPCLR_WINFORMSPROJECT1\DEBUG\FORM1.OBJ
C:\USERS\NARGESS\SOURCE\REPOS\CPPCLR_WINFORMSPROJECT1\CPPCLR_WINFORMSPROJECT1\DEBUG\MAIN.OBJ
C:\USERS\NARGESS\SOURCE\REPOS\CPPCLR_WINFORMSPROJECT1\CPPCLR_WINFORMSPROJECT1\DEBUG\MANAGERLOGIN.OBJ
C:\USERS\NARGESS\SOURCE\REPOS\CPPCLR_WINFORMSPROJECT1\CPPCLR_WINFORMSPROJECT1\DEBUG\MANAGERREG.OBJ
C:\USERS\NARGESS\SOURCE\REPOS\CPPCLR_WINFORMSPROJECT1\CPPCLR_WINFORMSPROJECT1\DEBUG\STUDENTLOGIN.OBJ
C:\USERS\NARGESS\SOURCE\REPOS\CPPCLR_WINFORMSPROJECT1\CPPCLR_WINFORMSPROJECT1\DEBUG\STUDENTREG.OBJ
C:\USERS\NARGESS\SOURCE\REPOS\CPPCLR_WINFORMSPROJECT1\CPPCLR_WINFORMSPROJECT1\DEBUG\SUCCESSFULREG.OBJ
C:\USERS\NARGESS\SOURCE\REPOS\CPPCLR_WINFORMSPROJECT1\CPPCLR_WINFORMSPROJECT1\DEBUG\UNSUCCESSFULREG.OBJ
C:\USERS\NARGESS\SOURCE\REPOS\CPPCLR_WINFORMSPROJECT1\CPPCLR_WINFORMSPROJECT1\DEBUG\.NETFRAMEWORK,VERSION=V4.7.2.ASSEMBLYATTRIBUTES.OBJ
C:\WINDOWS\GLOBALIZATION\SORTING\SORTDEFAULT.NLS
C:\PROGRAM FILES (X86)\MICROSOFT VISUAL STUDIO\2019\COMMUNITY\VC\TOOLS\MSVC\14.29.30037\BIN\HOSTX86\X86\1033\LINKUI.DLL
C:\WINDOWS\MICROSOFT.NET\FRAMEWORK\V2.0.50727\MSCORWKS.DLL
C:\WINDOWS\MICROSOFT.NET\FRAMEWORK\V4.0.30319\CLR.DLL
C:\PROGRAM FILES (X86)\MICROSOFT VISUAL STUDIO\2019\COMMUNITY\VC\TOOLS\MSVC\14.29.30037\BIN\HOSTX86\X86\LINK.EXE.CONFIG
C:\PROGRAM FILES (X86)\MICROSOFT VISUAL STUDIO\2019\COMMUNITY\VC\TOOLS\MSVC\14.29.30037\LIB\X86\MSVCRTD.LIB
C:\PROGRAM FILES (X86)\MICROSOFT VISUAL STUDIO\2019\COMMUNITY\VC\TOOLS\MSVC\14.29.30037\LIB\X86\OLDNAMES.LIB
C:\PROGRAM FILES (X86)\MICROSOFT VISUAL STUDIO\2019\COMMUNITY\VC\TOOLS\MSVC\14.29.30037\LIB\X86\MSVCMRTD.LIB
C:\PROGRAM FILES (X86)\WINDOWS KITS\NETFXSDK\4.8\LIB\UM\X86\MSCOREE.LIB
C:\PROGRAM FILES (X86)\WINDOWS KITS\10\LIB\10.0.19041.0\UM\X86\UUID.LIB
C:\PROGRAM FILES (X86)\WINDOWS KITS\10\LIB\10.0.19041.0\UM\X86\KERNEL32.LIB
C:\PROGRAM FILES (X86)\WINDOWS KITS\10\LIB\10.0.19041.0\UCRT\X86\UCRTD.LIB
C:\PROGRAM FILES (X86)\MICROSOFT VISUAL STUDIO\2019\COMMUNITY\VC\TOOLS\MSVC\14.29.30037\LIB\X86\VCRUNTIMED.LIB
C:\PROGRAM FILES (X86)\MICROSOFT VISUAL STUDIO\2019\COMMUNITY\VC\TOOLS\MSVC\14.29.30037\BIN\HOSTX86\X86\CVTRES.EXE
C:\USERS\NARGESS\SOURCE\REPOS\CPPCLR_WINFORMSPROJECT1\CPPCLR_WINFORMSPROJECT1\DEBUG\CPPCLR_WINFORMSPROJECT1.FORM1.RESOURCES
C:\USERS\NARGESS\SOURCE\REPOS\CPPCLR_WINFORMSPROJECT1\CPPCLR_WINFORMSPROJECT1\DEBUG\CPPCLR_WINFORMSPROJECT1.MANAGERLOGIN.RESOURCES
C:\USERS\NARGESS\SOURCE\REPOS\CPPCLR_WINFORMSPROJECT1\CPPCLR_WINFORMSPROJECT1\DEBUG\CPPCLR_WINFORMSPROJECT1.MANAGERREG.RESOURCES
C:\USERS\NARGESS\SOURCE\REPOS\CPPCLR_WINFORMSPROJECT1\CPPCLR_WINFORMSPROJECT1\DEBUG\CPPCLR_WINFORMSPROJECT1.STUDENTLOGIN.RESOURCES
C:\USERS\NARGESS\SOURCE\REPOS\CPPCLR_WINFORMSPROJECT1\CPPCLR_WINFORMSPROJECT1\DEBUG\CPPCLR_WINFORMSPROJECT1.STUDENTREG.RESOURCES
C:\USERS\NARGESS\SOURCE\REPOS\CPPCLR_WINFORMSPROJECT1\CPPCLR_WINFORMSPROJECT1\DEBUG\CPPCLR_WINFORMSPROJECT1.SUCCESSFULREG.RESOURCES
C:\USERS\NARGESS\SOURCE\REPOS\CPPCLR_WINFORMSPROJECT1\CPPCLR_WINFORMSPROJECT1\DEBUG\CPPCLR_WINFORMSPROJECT1.UNSUCCESSFULREG.RESOURCES
^D:\DANESHGAH\AP\NIM TERM\AP-PROJECT\CPPCLR_WINFORMSPROJECT1\CPPCLR_WINFORMSPROJECT1\DEBUG\.NETFRAMEWORK,VERSION=V4.7.2.ASSEMBLYATTRIBUTES.OBJ|D:\DANESHGAH\AP\NIM TERM\AP-PROJECT\CPPCLR_WINFORMSPROJECT1\CPPCLR_WINFORMSPROJECT1\DEBUG\FORM1.OBJ|D:\DANESHGAH\AP\NIM TERM\AP-PROJECT\CPPCLR_WINFORMSPROJECT1\CPPCLR_WINFORMSPROJECT1\DEBUG\MAIN.OBJ|D:\DANESHGAH\AP\NIM TERM\AP-PROJECT\CPPCLR_WINFORMSPROJECT1\CPPCLR_WINFORMSPROJECT1\DEBUG\MANAGEPANEL.OBJ|D:\DANESHGAH\AP\NIM TERM\AP-PROJECT\CPPCLR_WINFORMSPROJECT1\CPPCLR_WINFORMSPROJECT1\DEBUG\MANAGERLOGIN.OBJ|D:\DANESHGAH\AP\NIM TERM\AP-PROJECT\CPPCLR_WINFORMSPROJECT1\CPPCLR_WINFORMSPROJECT1\DEBUG\MANAGERREG.OBJ|D:\DANESHGAH\AP\NIM TERM\AP-PROJECT\CPPCLR_WINFORMSPROJECT1\CPPCLR_WINFORMSPROJECT1\DEBUG\STUDENTLOGIN.OBJ|D:\DANESHGAH\AP\NIM TERM\AP-PROJECT\CPPCLR_WINFORMSPROJECT1\CPPCLR_WINFORMSPROJECT1\DEBUG\STUDENTPANEL.OBJ|D:\DANESHGAH\AP\NIM TERM\AP-PROJECT\CPPCLR_WINFORMSPROJECT1\CPPCLR_WINFORMSPROJECT1\DEBUG\STUDENTREG.OBJ|D:\DANESHGAH\AP\NIM TERM\AP-PROJECT\CPPCLR_WINFORMSPROJECT1\CPPCLR_WINFORMSPROJECT1\DEBUG\SUCCESSFULREG.OBJ|D:\DANESHGAH\AP\NIM TERM\AP-PROJECT\CPPCLR_WINFORMSPROJECT1\CPPCLR_WINFORMSPROJECT1\DEBUG\UNSUCCESSFULREG.OBJ
D:\DANESHGAH\AP\NIM TERM\AP-PROJECT\CPPCLR_WINFORMSPROJECT1\CPPCLR_WINFORMSPROJECT1\DEBUG\FORM1.OBJ
D:\DANESHGAH\AP\NIM TERM\AP-PROJECT\CPPCLR_WINFORMSPROJECT1\CPPCLR_WINFORMSPROJECT1\DEBUG\MAIN.OBJ
D:\DANESHGAH\AP\NIM TERM\AP-PROJECT\CPPCLR_WINFORMSPROJECT1\CPPCLR_WINFORMSPROJECT1\DEBUG\MANAGEPANEL.OBJ
D:\DANESHGAH\AP\NIM TERM\AP-PROJECT\CPPCLR_WINFORMSPROJECT1\CPPCLR_WINFORMSPROJECT1\DEBUG\MANAGERLOGIN.OBJ
D:\DANESHGAH\AP\NIM TERM\AP-PROJECT\CPPCLR_WINFORMSPROJECT1\CPPCLR_WINFORMSPROJECT1\DEBUG\MANAGERREG.OBJ
D:\DANESHGAH\AP\NIM TERM\AP-PROJECT\CPPCLR_WINFORMSPROJECT1\CPPCLR_WINFORMSPROJECT1\DEBUG\STUDENTLOGIN.OBJ
D:\DANESHGAH\AP\NIM TERM\AP-PROJECT\CPPCLR_WINFORMSPROJECT1\CPPCLR_WINFORMSPROJECT1\DEBUG\STUDENTPANEL.OBJ
D:\DANESHGAH\AP\NIM TERM\AP-PROJECT\CPPCLR_WINFORMSPROJECT1\CPPCLR_WINFORMSPROJECT1\DEBUG\STUDENTREG.OBJ
D:\DANESHGAH\AP\NIM TERM\AP-PROJECT\CPPCLR_WINFORMSPROJECT1\CPPCLR_WINFORMSPROJECT1\DEBUG\SUCCESSFULREG.OBJ
D:\DANESHGAH\AP\NIM TERM\AP-PROJECT\CPPCLR_WINFORMSPROJECT1\CPPCLR_WINFORMSPROJECT1\DEBUG\UNSUCCESSFULREG.OBJ
D:\DANESHGAH\AP\NIM TERM\AP-PROJECT\CPPCLR_WINFORMSPROJECT1\CPPCLR_WINFORMSPROJECT1\DEBUG\.NETFRAMEWORK,VERSION=V4.7.2.ASSEMBLYATTRIBUTES.OBJ
C:\WINDOWS\GLOBALIZATION\SORTING\SORTDEFAULT.NLS
C:\PROGRAM FILES (X86)\MICROSOFT VISUAL STUDIO\2019\COMMUNITY\VC\TOOLS\MSVC\14.29.30037\BIN\HOSTX86\X86\1033\LINKUI.DLL
C:\WINDOWS\MICROSOFT.NET\FRAMEWORK\V2.0.50727\MSCORWKS.DLL
C:\WINDOWS\MICROSOFT.NET\FRAMEWORK\V4.0.30319\CLR.DLL
C:\PROGRAM FILES (X86)\MICROSOFT VISUAL STUDIO\2019\COMMUNITY\VC\TOOLS\MSVC\14.29.30037\BIN\HOSTX86\X86\LINK.EXE.CONFIG
C:\PROGRAM FILES (X86)\MICROSOFT VISUAL STUDIO\2019\COMMUNITY\VC\TOOLS\MSVC\14.29.30037\LIB\X86\MSVCRTD.LIB
C:\PROGRAM FILES (X86)\MICROSOFT VISUAL STUDIO\2019\COMMUNITY\VC\TOOLS\MSVC\14.29.30037\LIB\X86\OLDNAMES.LIB
C:\PROGRAM FILES (X86)\MICROSOFT VISUAL STUDIO\2019\COMMUNITY\VC\TOOLS\MSVC\14.29.30037\LIB\X86\MSVCMRTD.LIB
C:\PROGRAM FILES (X86)\WINDOWS KITS\NETFXSDK\4.8\LIB\UM\X86\MSCOREE.LIB
C:\PROGRAM FILES (X86)\WINDOWS KITS\10\LIB\10.0.19041.0\UM\X86\UUID.LIB
C:\PROGRAM FILES (X86)\WINDOWS KITS\10\LIB\10.0.19041.0\UM\X86\KERNEL32.LIB
C:\PROGRAM FILES (X86)\WINDOWS KITS\10\LIB\10.0.19041.0\UCRT\X86\UCRTD.LIB
C:\PROGRAM FILES (X86)\MICROSOFT VISUAL STUDIO\2019\COMMUNITY\VC\TOOLS\MSVC\14.29.30037\LIB\X86\VCRUNTIMED.LIB
C:\PROGRAM FILES (X86)\MICROSOFT VISUAL STUDIO\2019\COMMUNITY\VC\TOOLS\MSVC\14.29.30037\BIN\HOSTX86\X86\CVTRES.EXE
C:\PROGRAM FILES (X86)\MICROSOFT VISUAL STUDIO\2019\COMMUNITY\VC\TOOLS\MSVC\14.29.30037\BIN\HOSTX86\X86\MSPDBSRV.EXE
D:\DANESHGAH\AP\NIM TERM\AP-PROJECT\CPPCLR_WINFORMSPROJECT1\CPPCLR_WINFORMSPROJECT1\DEBUG\CPPCLR_WINFORMSPROJECT1.FORM1.RESOURCES
D:\DANESHGAH\AP\NIM TERM\AP-PROJECT\CPPCLR_WINFORMSPROJECT1\CPPCLR_WINFORMSPROJECT1\DEBUG\CPPCLR_WINFORMSPROJECT1.MANAGEPANEL.RESOURCES
D:\DANESHGAH\AP\NIM TERM\AP-PROJECT\CPPCLR_WINFORMSPROJECT1\CPPCLR_WINFORMSPROJECT1\DEBUG\CPPCLR_WINFORMSPROJECT1.MANAGERLOGIN.RESOURCES
D:\DANESHGAH\AP\NIM TERM\AP-PROJECT\CPPCLR_WINFORMSPROJECT1\CPPCLR_WINFORMSPROJECT1\DEBUG\CPPCLR_WINFORMSPROJECT1.MANAGERREG.RESOURCES
D:\DANESHGAH\AP\NIM TERM\AP-PROJECT\CPPCLR_WINFORMSPROJECT1\CPPCLR_WINFORMSPROJECT1\DEBUG\CPPCLR_WINFORMSPROJECT1.STUDENTLOGIN.RESOURCES
D:\DANESHGAH\AP\NIM TERM\AP-PROJECT\CPPCLR_WINFORMSPROJECT1\CPPCLR_WINFORMSPROJECT1\DEBUG\CPPCLR_WINFORMSPROJECT1.STUDENTPANEL.RESOURCES
D:\DANESHGAH\AP\NIM TERM\AP-PROJECT\CPPCLR_WINFORMSPROJECT1\CPPCLR_WINFORMSPROJECT1\DEBUG\CPPCLR_WINFORMSPROJECT1.STUDENTREG.RESOURCES
D:\DANESHGAH\AP\NIM TERM\AP-PROJECT\CPPCLR_WINFORMSPROJECT1\CPPCLR_WINFORMSPROJECT1\DEBUG\CPPCLR_WINFORMSPROJECT1.SUCCESSFULREG.RESOURCES
D:\DANESHGAH\AP\NIM TERM\AP-PROJECT\CPPCLR_WINFORMSPROJECT1\CPPCLR_WINFORMSPROJECT1\DEBUG\CPPCLR_WINFORMSPROJECT1.UNSUCCESSFULREG.RESOURCES
