^C:\USERS\NARGESS\SOURCE\REPOS\CPPCLR_WINFORMSPROJECT1\CPPCLR_WINFORMSPROJECT1\DEBUG\.NETFRAMEWORK,VERSION=V4.7.2.ASSEMBLYATTRIBUTES.OBJ|C:\USERS\NARGESS\SOURCE\REPOS\CPPCLR_WINFORMSPROJECT1\CPPCLR_WINFORMSPROJECT1\DEBUG\FORM1.OBJ|C:\USERS\NARGESS\SOURCE\REPOS\CPPCLR_WINFORMSPROJECT1\CPPCLR_WINFORMSPROJECT1\DEBUG\MAIN.OBJ|C:\USERS\NARGESS\SOURCE\REPOS\CPPCLR_WINFORMSPROJECT1\CPPCLR_WINFORMSPROJECT1\DEBUG\MANAGERLOGIN.OBJ|C:\USERS\NARGESS\SOURCE\REPOS\CPPCLR_WINFORMSPROJECT1\CPPCLR_WINFORMSPROJECT1\DEBUG\MANAGERREG.OBJ|C:\USERS\NARGESS\SOURCE\REPOS\CPPCLR_WINFORMSPROJECT1\CPPCLR_WINFORMSPROJECT1\DEBUG\STUDENTLOGIN.OBJ|C:\USERS\NARGESS\SOURCE\REPOS\CPPCLR_WINFORMSPROJECT1\CPPCLR_WINFORMSPROJECT1\DEBUG\STUDENTREG.OBJ|C:\USERS\NARGESS\SOURCE\REPOS\CPPCLR_WINFORMSPROJECT1\CPPCLR_WINFORMSPROJECT1\DEBUG\SUCCESSFULREG.OBJ|C:\USERS\NARGESS\SOURCE\REPOS\CPPCLR_WINFORMSPROJECT1\CPPCLR_WINFORMSPROJECT1\DEBUG\UNSUCCESSFULREG.OBJ
C:\USERS\NARGESS\SOURCE\REPOS\CPPCLR_WINFORMSPROJECT1\DEBUG\CPPCLR_WINFORMSPROJECT1.EXE
C:\USERS\NARGESS\SOURCE\REPOS\CPPCLR_WINFORMSPROJECT1\DEBUG\CPPCLR_WINFORMSPROJECT1.PDB
^D:\DANESHGAH\AP\NIM TERM\AP-PROJECT\CPPCLR_WINFORMSPROJECT1\CPPCLR_WINFORMSPROJECT1\DEBUG\.NETFRAMEWORK,VERSION=V4.7.2.ASSEMBLYATTRIBUTES.OBJ|D:\DANESHGAH\AP\NIM TERM\AP-PROJECT\CPPCLR_WINFORMSPROJECT1\CPPCLR_WINFORMSPROJECT1\DEBUG\FORM1.OBJ|D:\DANESHGAH\AP\NIM TERM\AP-PROJECT\CPPCLR_WINFORMSPROJECT1\CPPCLR_WINFORMSPROJECT1\DEBUG\MAIN.OBJ|D:\DANESHGAH\AP\NIM TERM\AP-PROJECT\CPPCLR_WINFORMSPROJECT1\CPPCLR_WINFORMSPROJECT1\DEBUG\MANAGEPANEL.OBJ|D:\DANESHGAH\AP\NIM TERM\AP-PROJECT\CPPCLR_WINFORMSPROJECT1\CPPCLR_WINFORMSPROJECT1\DEBUG\MANAGERLOGIN.OBJ|D:\DANESHGAH\AP\NIM TERM\AP-PROJECT\CPPCLR_WINFORMSPROJECT1\CPPCLR_WINFORMSPROJECT1\DEBUG\MANAGERREG.OBJ|D:\DANESHGAH\AP\NIM TERM\AP-PROJECT\CPPCLR_WINFORMSPROJECT1\CPPCLR_WINFORMSPROJECT1\DEBUG\STUDENTLOGIN.OBJ|D:\DANESHGAH\AP\NIM TERM\AP-PROJECT\CPPCLR_WINFORMSPROJECT1\CPPCLR_WINFORMSPROJECT1\DEBUG\STUDENTPANEL.OBJ|D:\DANESHGAH\AP\NIM TERM\AP-PROJECT\CPPCLR_WINFORMSPROJECT1\CPPCLR_WINFORMSPROJECT1\DEBUG\STUDENTREG.OBJ|D:\DANESHGAH\AP\NIM TERM\AP-PROJECT\CPPCLR_WINFORMSPROJECT1\CPPCLR_WINFORMSPROJECT1\DEBUG\SUCCESSFULREG.OBJ|D:\DANESHGAH\AP\NIM TERM\AP-PROJECT\CPPCLR_WINFORMSPROJECT1\CPPCLR_WINFORMSPROJECT1\DEBUG\UNSUCCESSFULREG.OBJ
D:\DANESHGAH\AP\NIM TERM\AP-PROJECT\CPPCLR_WINFORMSPROJECT1\DEBUG\CPPCLR_WINFORMSPROJECT1.EXE
D:\DANESHGAH\AP\NIM TERM\AP-PROJECT\CPPCLR_WINFORMSPROJECT1\DEBUG\CPPCLR_WINFORMSPROJECT1.PDB
